@relation unknownTestData

@attribute ID_number numeric
@attribute ' diagnosis' {M,B}
@attribute ' radius_mean' numeric
@attribute ' texture_mean' numeric
@attribute ' perimeter_mean' numeric
@attribute ' area_mean' numeric
@attribute ' smoothness_mean' numeric
@attribute ' compactness_mean' numeric
@attribute ' concavity_mean' numeric
@attribute ' concave_points_mean' numeric
@attribute ' symmetry_mean' numeric
@attribute ' fractal_dimention_mean' numeric
@attribute ' radius_SE' numeric
@attribute ' texture_SE' numeric
@attribute ' perimeter_SE' numeric
@attribute ' area_SE' numeric
@attribute ' smoothness_SE' numeric
@attribute ' compactness_SE' numeric
@attribute ' concavity_SE' numeric
@attribute ' concave_points_SE' numeric
@attribute ' symmetry_SE' numeric
@attribute ' fractal_dimention_SE' numeric
@attribute ' radius_worst' numeric
@attribute ' texture_worst' numeric
@attribute ' perimeter_worst' numeric
@attribute ' area_worst' numeric
@attribute ' smoothness_worst' numeric
@attribute ' compactness_worst' numeric
@attribute ' concavity_worst' numeric
@attribute ' concave_points_worst' numeric
@attribute ' symmetry_worst' numeric
@attribute ' fractal_dimention_worst' numeric

@data
842517,?,20.57,17.77,132.9,1326,0.08474,0.07864,0.0869,0.07017,0.1812,0.05667,0.5435,0.7339,3.398,74.08,0.005225,0.01308,0.0186,0.0134,0.01389,0.003532,24.99,23.41,158.8,1956,0.1238,0.1866,0.2416,0.186,0.275,0.08902
84300903,?,19.69,21.25,130,1203,0.1096,0.1599,0.1974,0.1279,0.2069,0.05999,0.7456,0.7869,4.585,94.03,0.00615,0.04006,0.03832,0.02058,0.0225,0.004571,23.57,25.53,152.5,1709,0.1444,0.4245,0.4504,0.243,0.3613,0.08758
84348301,?,11.42,20.38,77.58,386.1,0.1425,0.2839,0.2414,0.1052,0.2597,0.09744,0.4956,1.156,3.445,27.23,0.00911,0.07458,0.05661,0.01867,0.05963,0.009208,14.91,26.5,98.87,567.7,0.2098,0.8663,0.6869,0.2575,0.6638,0.173
84358402,?,20.29,14.34,135.1,1297,0.1003,0.1328,0.198,0.1043,0.1809,0.05883,0.7572,0.7813,5.438,94.44,0.01149,0.02461,0.05688,0.01885,0.01756,0.005115,22.54,16.67,152.2,1575,0.1374,0.205,0.4,0.1625,0.2364,0.07678
843786,?,12.45,15.7,82.57,477.1,0.1278,0.17,0.1578,0.08089,0.2087,0.07613,0.3345,0.8902,2.217,27.19,0.00751,0.03345,0.03672,0.01137,0.02165,0.005082,15.47,23.75,103.4,741.6,0.1791,0.5249,0.5355,0.1741,0.3985,0.1244
844359,?,18.25,19.98,119.6,1040,0.09463,0.109,0.1127,0.074,0.1794,0.05742,0.4467,0.7732,3.18,53.91,0.004314,0.01382,0.02254,0.01039,0.01369,0.002179,22.88,27.66,153.2,1606,0.1442,0.2576,0.3784,0.1932,0.3063,0.08368
8510426,?,13.54,14.36,87.46,566.3,0.09779,0.08129,0.06664,0.04781,0.1885,0.05766,0.2699,0.7886,2.058,23.56,0.008462,0.0146,0.02387,0.01315,0.0198,0.0023,15.11,19.26,99.7,711.2,0.144,0.1773,0.239,0.1288,0.2977,0.07259
